-------------------------------------------------------------------------------
Test set: edu.stanford.nlp.classify.RVFDatasetTest
-------------------------------------------------------------------------------
Tests run: 2, Failures: 0, Errors: 0, Skipped: 0, Time elapsed: 0.006 sec - in edu.stanford.nlp.classify.RVFDatasetTest
