-------------------------------------------------------------------------------
Test set: edu.stanford.nlp.optimization.DiffFunctionTest
-------------------------------------------------------------------------------
Tests run: 1, Failures: 0, Errors: 0, Skipped: 0, Time elapsed: 0.044 sec - in edu.stanford.nlp.optimization.DiffFunctionTest
