-------------------------------------------------------------------------------
Test set: edu.stanford.nlp.util.IterableIteratorTest
-------------------------------------------------------------------------------
Tests run: 3, Failures: 0, Errors: 0, Skipped: 0, Time elapsed: 0.007 sec - in edu.stanford.nlp.util.IterableIteratorTest
