-------------------------------------------------------------------------------
Test set: edu.stanford.nlp.pipeline.CleanXmlAnnotatorTest
-------------------------------------------------------------------------------
Tests run: 12, Failures: 0, Errors: 0, Skipped: 0, Time elapsed: 0.193 sec - in edu.stanford.nlp.pipeline.CleanXmlAnnotatorTest
