-------------------------------------------------------------------------------
Test set: edu.stanford.nlp.naturalli.UtilTest
-------------------------------------------------------------------------------
Tests run: 6, Failures: 0, Errors: 0, Skipped: 0, Time elapsed: 0.004 sec - in edu.stanford.nlp.naturalli.UtilTest
