-------------------------------------------------------------------------------
Test set: edu.stanford.nlp.pipeline.TokenizerAnnotatorTest
-------------------------------------------------------------------------------
Tests run: 4, Failures: 0, Errors: 0, Skipped: 0, Time elapsed: 0.004 sec - in edu.stanford.nlp.pipeline.TokenizerAnnotatorTest
