-------------------------------------------------------------------------------
Test set: edu.stanford.nlp.trees.EnglishGrammaticalStructureTest
-------------------------------------------------------------------------------
Tests run: 9, Failures: 0, Errors: 0, Skipped: 0, Time elapsed: 0.355 sec - in edu.stanford.nlp.trees.EnglishGrammaticalStructureTest
