-------------------------------------------------------------------------------
Test set: edu.stanford.nlp.classify.GeneralDatasetTest
-------------------------------------------------------------------------------
Tests run: 1, Failures: 0, Errors: 0, Skipped: 0, Time elapsed: 0.002 sec - in edu.stanford.nlp.classify.GeneralDatasetTest
