-------------------------------------------------------------------------------
Test set: edu.stanford.nlp.parser.lexparser.SpanishUnknownWordModelTest
-------------------------------------------------------------------------------
Tests run: 1, Failures: 0, Errors: 0, Skipped: 0, Time elapsed: 0.016 sec - in edu.stanford.nlp.parser.lexparser.SpanishUnknownWordModelTest
