-------------------------------------------------------------------------------
Test set: edu.stanford.nlp.math.SloppyMathTest
-------------------------------------------------------------------------------
Tests run: 12, Failures: 0, Errors: 0, Skipped: 0, Time elapsed: 0.014 sec - in edu.stanford.nlp.math.SloppyMathTest
