-------------------------------------------------------------------------------
Test set: edu.stanford.nlp.ie.QuantifiableEntityNormalizerTest
-------------------------------------------------------------------------------
Tests run: 6, Failures: 0, Errors: 0, Skipped: 0, Time elapsed: 0.021 sec - in edu.stanford.nlp.ie.QuantifiableEntityNormalizerTest
