-------------------------------------------------------------------------------
Test set: edu.stanford.nlp.ie.regexp.RegexNERSequenceClassifierTest
-------------------------------------------------------------------------------
Tests run: 3, Failures: 0, Errors: 0, Skipped: 0, Time elapsed: 0.011 sec - in edu.stanford.nlp.ie.regexp.RegexNERSequenceClassifierTest
