-------------------------------------------------------------------------------
Test set: edu.stanford.nlp.loglinear.model.ConcatVectorNamespaceTest
-------------------------------------------------------------------------------
Tests run: 1, Failures: 0, Errors: 0, Skipped: 0, Time elapsed: 0.182 sec - in edu.stanford.nlp.loglinear.model.ConcatVectorNamespaceTest
