-------------------------------------------------------------------------------
Test set: edu.stanford.nlp.ling.tokensregex.PhraseTableTest
-------------------------------------------------------------------------------
Tests run: 3, Failures: 0, Errors: 0, Skipped: 0, Time elapsed: 0.02 sec - in edu.stanford.nlp.ling.tokensregex.PhraseTableTest
